(kicad_sch
	(version 20231120)
	(generator "eeschema")
	(generator_version "8.0")
	(uuid "7c1ec8a5-5aad-476c-a52f-fb322a08536a")
	(paper "A5")
	(title_block
		(title "Amiga 1200 Portexpander MikroSD-Adapter")
		(date "2024-11-16")
		(rev "1.3")
	)
	(lib_symbols
		(symbol "Connector:Micro_SD_Card"
			(pin_names
				(offset 1.016)
			)
			(exclude_from_sim no)
			(in_bom yes)
			(on_board yes)
			(property "Reference" "J"
				(at -16.51 15.24 0)
				(effects
					(font
						(size 1.27 1.27)
					)
				)
			)
			(property "Value" "Micro_SD_Card"
				(at 16.51 15.24 0)
				(effects
					(font
						(size 1.27 1.27)
					)
					(justify right)
				)
			)
			(property "Footprint" ""
				(at 29.21 7.62 0)
				(effects
					(font
						(size 1.27 1.27)
					)
					(hide yes)
				)
			)
			(property "Datasheet" "http://katalog.we-online.de/em/datasheet/693072010801.pdf"
				(at 0 0 0)
				(effects
					(font
						(size 1.27 1.27)
					)
					(hide yes)
				)
			)
			(property "Description" "Micro SD Card Socket"
				(at 0 0 0)
				(effects
					(font
						(size 1.27 1.27)
					)
					(hide yes)
				)
			)
			(property "ki_keywords" "connector SD microsd"
				(at 0 0 0)
				(effects
					(font
						(size 1.27 1.27)
					)
					(hide yes)
				)
			)
			(property "ki_fp_filters" "microSD*"
				(at 0 0 0)
				(effects
					(font
						(size 1.27 1.27)
					)
					(hide yes)
				)
			)
			(symbol "Micro_SD_Card_0_1"
				(rectangle
					(start -7.62 -9.525)
					(end -5.08 -10.795)
					(stroke
						(width 0)
						(type default)
					)
					(fill
						(type outline)
					)
				)
				(rectangle
					(start -7.62 -6.985)
					(end -5.08 -8.255)
					(stroke
						(width 0)
						(type default)
					)
					(fill
						(type outline)
					)
				)
				(rectangle
					(start -7.62 -4.445)
					(end -5.08 -5.715)
					(stroke
						(width 0)
						(type default)
					)
					(fill
						(type outline)
					)
				)
				(rectangle
					(start -7.62 -1.905)
					(end -5.08 -3.175)
					(stroke
						(width 0)
						(type default)
					)
					(fill
						(type outline)
					)
				)
				(rectangle
					(start -7.62 0.635)
					(end -5.08 -0.635)
					(stroke
						(width 0)
						(type default)
					)
					(fill
						(type outline)
					)
				)
				(rectangle
					(start -7.62 3.175)
					(end -5.08 1.905)
					(stroke
						(width 0)
						(type default)
					)
					(fill
						(type outline)
					)
				)
				(rectangle
					(start -7.62 5.715)
					(end -5.08 4.445)
					(stroke
						(width 0)
						(type default)
					)
					(fill
						(type outline)
					)
				)
				(rectangle
					(start -7.62 8.255)
					(end -5.08 6.985)
					(stroke
						(width 0)
						(type default)
					)
					(fill
						(type outline)
					)
				)
				(polyline
					(pts
						(xy 16.51 12.7) (xy 16.51 13.97) (xy -19.05 13.97) (xy -19.05 -16.51) (xy 16.51 -16.51) (xy 16.51 -11.43)
					)
					(stroke
						(width 0.254)
						(type default)
					)
					(fill
						(type none)
					)
				)
				(polyline
					(pts
						(xy -8.89 -11.43) (xy -8.89 8.89) (xy -1.27 8.89) (xy 2.54 12.7) (xy 3.81 12.7) (xy 3.81 11.43)
						(xy 6.35 11.43) (xy 7.62 12.7) (xy 20.32 12.7) (xy 20.32 -11.43) (xy -8.89 -11.43)
					)
					(stroke
						(width 0.254)
						(type default)
					)
					(fill
						(type background)
					)
				)
			)
			(symbol "Micro_SD_Card_1_1"
				(pin bidirectional line
					(at -22.86 7.62 0)
					(length 3.81)
					(name "DAT2"
						(effects
							(font
								(size 1.27 1.27)
							)
						)
					)
					(number "1"
						(effects
							(font
								(size 1.27 1.27)
							)
						)
					)
				)
				(pin bidirectional line
					(at -22.86 5.08 0)
					(length 3.81)
					(name "DAT3/CD"
						(effects
							(font
								(size 1.27 1.27)
							)
						)
					)
					(number "2"
						(effects
							(font
								(size 1.27 1.27)
							)
						)
					)
				)
				(pin input line
					(at -22.86 2.54 0)
					(length 3.81)
					(name "CMD"
						(effects
							(font
								(size 1.27 1.27)
							)
						)
					)
					(number "3"
						(effects
							(font
								(size 1.27 1.27)
							)
						)
					)
				)
				(pin power_in line
					(at -22.86 0 0)
					(length 3.81)
					(name "VDD"
						(effects
							(font
								(size 1.27 1.27)
							)
						)
					)
					(number "4"
						(effects
							(font
								(size 1.27 1.27)
							)
						)
					)
				)
				(pin input line
					(at -22.86 -2.54 0)
					(length 3.81)
					(name "CLK"
						(effects
							(font
								(size 1.27 1.27)
							)
						)
					)
					(number "5"
						(effects
							(font
								(size 1.27 1.27)
							)
						)
					)
				)
				(pin power_in line
					(at -22.86 -5.08 0)
					(length 3.81)
					(name "VSS"
						(effects
							(font
								(size 1.27 1.27)
							)
						)
					)
					(number "6"
						(effects
							(font
								(size 1.27 1.27)
							)
						)
					)
				)
				(pin bidirectional line
					(at -22.86 -7.62 0)
					(length 3.81)
					(name "DAT0"
						(effects
							(font
								(size 1.27 1.27)
							)
						)
					)
					(number "7"
						(effects
							(font
								(size 1.27 1.27)
							)
						)
					)
				)
				(pin bidirectional line
					(at -22.86 -10.16 0)
					(length 3.81)
					(name "DAT1"
						(effects
							(font
								(size 1.27 1.27)
							)
						)
					)
					(number "8"
						(effects
							(font
								(size 1.27 1.27)
							)
						)
					)
				)
				(pin passive line
					(at 20.32 -15.24 180)
					(length 3.81)
					(name "SHIELD"
						(effects
							(font
								(size 1.27 1.27)
							)
						)
					)
					(number "9"
						(effects
							(font
								(size 1.27 1.27)
							)
						)
					)
				)
			)
		)
		(symbol "Connector_Generic:Conn_02x05_Odd_Even"
			(pin_names
				(offset 1.016) hide)
			(exclude_from_sim no)
			(in_bom yes)
			(on_board yes)
			(property "Reference" "J"
				(at 1.27 7.62 0)
				(effects
					(font
						(size 1.27 1.27)
					)
				)
			)
			(property "Value" "Conn_02x05_Odd_Even"
				(at 1.27 -7.62 0)
				(effects
					(font
						(size 1.27 1.27)
					)
				)
			)
			(property "Footprint" ""
				(at 0 0 0)
				(effects
					(font
						(size 1.27 1.27)
					)
					(hide yes)
				)
			)
			(property "Datasheet" "~"
				(at 0 0 0)
				(effects
					(font
						(size 1.27 1.27)
					)
					(hide yes)
				)
			)
			(property "Description" "Generic connector, double row, 02x05, odd/even pin numbering scheme (row 1 odd numbers, row 2 even numbers), script generated (kicad-library-utils/schlib/autogen/connector/)"
				(at 0 0 0)
				(effects
					(font
						(size 1.27 1.27)
					)
					(hide yes)
				)
			)
			(property "ki_keywords" "connector"
				(at 0 0 0)
				(effects
					(font
						(size 1.27 1.27)
					)
					(hide yes)
				)
			)
			(property "ki_fp_filters" "Connector*:*_2x??_*"
				(at 0 0 0)
				(effects
					(font
						(size 1.27 1.27)
					)
					(hide yes)
				)
			)
			(symbol "Conn_02x05_Odd_Even_1_1"
				(rectangle
					(start -1.27 -4.953)
					(end 0 -5.207)
					(stroke
						(width 0.1524)
						(type default)
					)
					(fill
						(type none)
					)
				)
				(rectangle
					(start -1.27 -2.413)
					(end 0 -2.667)
					(stroke
						(width 0.1524)
						(type default)
					)
					(fill
						(type none)
					)
				)
				(rectangle
					(start -1.27 0.127)
					(end 0 -0.127)
					(stroke
						(width 0.1524)
						(type default)
					)
					(fill
						(type none)
					)
				)
				(rectangle
					(start -1.27 2.667)
					(end 0 2.413)
					(stroke
						(width 0.1524)
						(type default)
					)
					(fill
						(type none)
					)
				)
				(rectangle
					(start -1.27 5.207)
					(end 0 4.953)
					(stroke
						(width 0.1524)
						(type default)
					)
					(fill
						(type none)
					)
				)
				(rectangle
					(start -1.27 6.35)
					(end 3.81 -6.35)
					(stroke
						(width 0.254)
						(type default)
					)
					(fill
						(type background)
					)
				)
				(rectangle
					(start 3.81 -4.953)
					(end 2.54 -5.207)
					(stroke
						(width 0.1524)
						(type default)
					)
					(fill
						(type none)
					)
				)
				(rectangle
					(start 3.81 -2.413)
					(end 2.54 -2.667)
					(stroke
						(width 0.1524)
						(type default)
					)
					(fill
						(type none)
					)
				)
				(rectangle
					(start 3.81 0.127)
					(end 2.54 -0.127)
					(stroke
						(width 0.1524)
						(type default)
					)
					(fill
						(type none)
					)
				)
				(rectangle
					(start 3.81 2.667)
					(end 2.54 2.413)
					(stroke
						(width 0.1524)
						(type default)
					)
					(fill
						(type none)
					)
				)
				(rectangle
					(start 3.81 5.207)
					(end 2.54 4.953)
					(stroke
						(width 0.1524)
						(type default)
					)
					(fill
						(type none)
					)
				)
				(pin passive line
					(at -5.08 5.08 0)
					(length 3.81)
					(name "Pin_1"
						(effects
							(font
								(size 1.27 1.27)
							)
						)
					)
					(number "1"
						(effects
							(font
								(size 1.27 1.27)
							)
						)
					)
				)
				(pin passive line
					(at 7.62 -5.08 180)
					(length 3.81)
					(name "Pin_10"
						(effects
							(font
								(size 1.27 1.27)
							)
						)
					)
					(number "10"
						(effects
							(font
								(size 1.27 1.27)
							)
						)
					)
				)
				(pin passive line
					(at 7.62 5.08 180)
					(length 3.81)
					(name "Pin_2"
						(effects
							(font
								(size 1.27 1.27)
							)
						)
					)
					(number "2"
						(effects
							(font
								(size 1.27 1.27)
							)
						)
					)
				)
				(pin passive line
					(at -5.08 2.54 0)
					(length 3.81)
					(name "Pin_3"
						(effects
							(font
								(size 1.27 1.27)
							)
						)
					)
					(number "3"
						(effects
							(font
								(size 1.27 1.27)
							)
						)
					)
				)
				(pin passive line
					(at 7.62 2.54 180)
					(length 3.81)
					(name "Pin_4"
						(effects
							(font
								(size 1.27 1.27)
							)
						)
					)
					(number "4"
						(effects
							(font
								(size 1.27 1.27)
							)
						)
					)
				)
				(pin passive line
					(at -5.08 0 0)
					(length 3.81)
					(name "Pin_5"
						(effects
							(font
								(size 1.27 1.27)
							)
						)
					)
					(number "5"
						(effects
							(font
								(size 1.27 1.27)
							)
						)
					)
				)
				(pin passive line
					(at 7.62 0 180)
					(length 3.81)
					(name "Pin_6"
						(effects
							(font
								(size 1.27 1.27)
							)
						)
					)
					(number "6"
						(effects
							(font
								(size 1.27 1.27)
							)
						)
					)
				)
				(pin passive line
					(at -5.08 -2.54 0)
					(length 3.81)
					(name "Pin_7"
						(effects
							(font
								(size 1.27 1.27)
							)
						)
					)
					(number "7"
						(effects
							(font
								(size 1.27 1.27)
							)
						)
					)
				)
				(pin passive line
					(at 7.62 -2.54 180)
					(length 3.81)
					(name "Pin_8"
						(effects
							(font
								(size 1.27 1.27)
							)
						)
					)
					(number "8"
						(effects
							(font
								(size 1.27 1.27)
							)
						)
					)
				)
				(pin passive line
					(at -5.08 -5.08 0)
					(length 3.81)
					(name "Pin_9"
						(effects
							(font
								(size 1.27 1.27)
							)
						)
					)
					(number "9"
						(effects
							(font
								(size 1.27 1.27)
							)
						)
					)
				)
			)
		)
	)
	(junction
		(at 101.6 50.8)
		(diameter 1.016)
		(color 0 0 0 0)
		(uuid "55e56e79-ff9e-41e2-b377-c903d28b1799")
	)
	(bus_entry
		(at 111.76 69.85)
		(size 2.54 -2.54)
		(stroke
			(width 0.1524)
			(type solid)
		)
		(uuid "014d1497-9d4f-4217-b1cd-be9a626a0f4d")
	)
	(bus_entry
		(at 111.76 77.47)
		(size 2.54 -2.54)
		(stroke
			(width 0.1524)
			(type solid)
		)
		(uuid "11f7e608-3f50-4d25-9d17-3c034acb50b6")
	)
	(bus_entry
		(at 76.2 67.31)
		(size 2.54 -2.54)
		(stroke
			(width 0.1524)
			(type solid)
		)
		(uuid "19717323-640d-4d87-a1ea-306a863405b9")
	)
	(bus_entry
		(at 111.76 62.23)
		(size 2.54 -2.54)
		(stroke
			(width 0.1524)
			(type solid)
		)
		(uuid "1ed1bcb0-6c66-4cea-8573-a950951d418c")
	)
	(bus_entry
		(at 111.76 67.31)
		(size 2.54 -2.54)
		(stroke
			(width 0.1524)
			(type solid)
		)
		(uuid "3b3b8a57-32f4-48a9-987e-139495cfd766")
	)
	(bus_entry
		(at 111.76 64.77)
		(size 2.54 -2.54)
		(stroke
			(width 0.1524)
			(type solid)
		)
		(uuid "443ae03f-3d07-465d-88e4-14a8a27c98ef")
	)
	(bus_entry
		(at 99.06 72.39)
		(size 2.54 2.54)
		(stroke
			(width 0.1524)
			(type solid)
		)
		(uuid "5ef66f82-3c7f-4bf8-81ba-722530e28ab0")
	)
	(bus_entry
		(at 99.06 64.77)
		(size 2.54 2.54)
		(stroke
			(width 0.1524)
			(type solid)
		)
		(uuid "7a9315e6-e7e0-4eff-b8f2-4bafb79677f6")
	)
	(bus_entry
		(at 76.2 74.93)
		(size 2.54 -2.54)
		(stroke
			(width 0.1524)
			(type solid)
		)
		(uuid "901383a6-282c-4932-b2ff-6bfab499a03b")
	)
	(bus_entry
		(at 111.76 59.69)
		(size 2.54 -2.54)
		(stroke
			(width 0.1524)
			(type solid)
		)
		(uuid "93233a6e-ba2d-46ca-bf7e-7a6a0616d7e6")
	)
	(bus_entry
		(at 76.2 72.39)
		(size 2.54 -2.54)
		(stroke
			(width 0.1524)
			(type solid)
		)
		(uuid "cf59208b-2ab5-44b3-afc6-67f460bdb849")
	)
	(bus_entry
		(at 111.76 74.93)
		(size 2.54 -2.54)
		(stroke
			(width 0.1524)
			(type solid)
		)
		(uuid "e2c0dcda-fe1c-4b3c-af55-de5ce4e310de")
	)
	(bus_entry
		(at 99.06 67.31)
		(size 2.54 2.54)
		(stroke
			(width 0.1524)
			(type solid)
		)
		(uuid "e5d99cfb-7d1c-48c1-a472-10ddce2a46f9")
	)
	(bus_entry
		(at 76.2 69.85)
		(size 2.54 -2.54)
		(stroke
			(width 0.1524)
			(type solid)
		)
		(uuid "ea8b24d2-8b98-473f-95ae-a09554cc2d66")
	)
	(bus_entry
		(at 76.2 77.47)
		(size 2.54 -2.54)
		(stroke
			(width 0.1524)
			(type solid)
		)
		(uuid "ebac8a1c-ec73-44dc-8c19-585d838c87b7")
	)
	(bus_entry
		(at 111.76 72.39)
		(size 2.54 -2.54)
		(stroke
			(width 0.1524)
			(type solid)
		)
		(uuid "edb87a5b-005f-4155-90bd-2f3f4cc08f4b")
	)
	(bus_entry
		(at 99.06 74.93)
		(size 2.54 2.54)
		(stroke
			(width 0.1524)
			(type solid)
		)
		(uuid "ef302565-ccfe-4614-a1eb-8f857cedec64")
	)
	(bus_entry
		(at 99.06 69.85)
		(size 2.54 2.54)
		(stroke
			(width 0.1524)
			(type solid)
		)
		(uuid "ff79b91c-a22e-48c8-a98c-7089991a2f1a")
	)
	(bus
		(pts
			(xy 76.2 72.39) (xy 76.2 69.85)
		)
		(stroke
			(width 0.3)
			(type solid)
		)
		(uuid "065f89ce-e995-413b-a3f8-d2365238b38e")
	)
	(wire
		(pts
			(xy 95.25 64.77) (xy 99.06 64.77)
		)
		(stroke
			(width 0)
			(type solid)
		)
		(uuid "10ba90b3-082f-4c70-8bb0-cf556e855825")
	)
	(bus
		(pts
			(xy 101.6 50.8) (xy 101.6 67.31)
		)
		(stroke
			(width 0.3)
			(type solid)
		)
		(uuid "10cd785c-22d6-4faf-81dc-493ca9801920")
	)
	(bus
		(pts
			(xy 101.6 74.93) (xy 101.6 77.47)
		)
		(stroke
			(width 0.3)
			(type solid)
		)
		(uuid "14c131c2-b9ff-4614-96f3-ecd2ba5ab70c")
	)
	(wire
		(pts
			(xy 114.3 72.39) (xy 121.92 72.39)
		)
		(stroke
			(width 0)
			(type solid)
		)
		(uuid "23b2fa87-9475-4d02-bb4f-5f4e3cfd985b")
	)
	(wire
		(pts
			(xy 78.74 64.77) (xy 82.55 64.77)
		)
		(stroke
			(width 0)
			(type solid)
		)
		(uuid "2424c72d-da80-47a9-8ea7-c6b8cca996a1")
	)
	(bus
		(pts
			(xy 111.76 74.93) (xy 111.76 77.47)
		)
		(stroke
			(width 0.3)
			(type solid)
		)
		(uuid "249b7774-4b19-4584-875b-5fdfffcca1c9")
	)
	(bus
		(pts
			(xy 76.2 69.85) (xy 76.2 67.31)
		)
		(stroke
			(width 0.3)
			(type solid)
		)
		(uuid "35cdd7cb-ba33-4fc7-8b90-56bd2f3f1e9f")
	)
	(wire
		(pts
			(xy 78.74 69.85) (xy 82.55 69.85)
		)
		(stroke
			(width 0)
			(type solid)
		)
		(uuid "410f8464-aaf9-4d18-b46b-53c9358487db")
	)
	(wire
		(pts
			(xy 78.74 67.31) (xy 82.55 67.31)
		)
		(stroke
			(width 0)
			(type solid)
		)
		(uuid "41d5381a-a860-4cf6-a00f-ad071695243b")
	)
	(wire
		(pts
			(xy 114.3 62.23) (xy 121.92 62.23)
		)
		(stroke
			(width 0)
			(type solid)
		)
		(uuid "436780c1-f7e9-49a6-b475-3d1509b4588d")
	)
	(bus
		(pts
			(xy 76.2 74.93) (xy 76.2 72.39)
		)
		(stroke
			(width 0.3)
			(type solid)
		)
		(uuid "465e01ec-8fdb-4b28-aab9-347f08697f6d")
	)
	(bus
		(pts
			(xy 111.76 72.39) (xy 111.76 74.93)
		)
		(stroke
			(width 0.3)
			(type solid)
		)
		(uuid "4ebef7cc-907a-479b-9a85-e438b83b6341")
	)
	(bus
		(pts
			(xy 111.76 59.69) (xy 111.76 62.23)
		)
		(stroke
			(width 0.3)
			(type solid)
		)
		(uuid "4f7e3cc8-7bb4-4c52-a17d-c7094d15210b")
	)
	(wire
		(pts
			(xy 114.3 74.93) (xy 121.92 74.93)
		)
		(stroke
			(width 0)
			(type solid)
		)
		(uuid "50077ccb-0eac-4a6d-b184-4164f6191e3c")
	)
	(wire
		(pts
			(xy 78.74 74.93) (xy 82.55 74.93)
		)
		(stroke
			(width 0)
			(type solid)
		)
		(uuid "5ea14f88-96c9-49af-a9dd-37fbd9e68415")
	)
	(wire
		(pts
			(xy 78.74 72.39) (xy 82.55 72.39)
		)
		(stroke
			(width 0)
			(type solid)
		)
		(uuid "5ed1d1af-d8a9-4354-8e76-27eade2a5172")
	)
	(bus
		(pts
			(xy 111.76 62.23) (xy 111.76 64.77)
		)
		(stroke
			(width 0.3)
			(type solid)
		)
		(uuid "701bfbbf-d3fe-4c6e-a2c8-5d4d74353701")
	)
	(bus
		(pts
			(xy 76.2 77.47) (xy 76.2 74.93)
		)
		(stroke
			(width 0.3)
			(type solid)
		)
		(uuid "7c7125e2-e47b-490f-9277-617813b55aba")
	)
	(wire
		(pts
			(xy 114.3 59.69) (xy 121.92 59.69)
		)
		(stroke
			(width 0)
			(type solid)
		)
		(uuid "88493c77-a33d-45a9-84be-6b9b2a7e4a54")
	)
	(bus
		(pts
			(xy 111.76 64.77) (xy 111.76 67.31)
		)
		(stroke
			(width 0.3)
			(type solid)
		)
		(uuid "88cfe130-426f-4488-be82-b4eee9919cb5")
	)
	(bus
		(pts
			(xy 101.6 50.8) (xy 111.76 50.8)
		)
		(stroke
			(width 0.3)
			(type solid)
		)
		(uuid "929229a4-5aef-4e64-97a5-0ee292abec16")
	)
	(wire
		(pts
			(xy 114.3 64.77) (xy 121.92 64.77)
		)
		(stroke
			(width 0)
			(type solid)
		)
		(uuid "9c822797-6691-4b7a-afe9-a35265be0888")
	)
	(bus
		(pts
			(xy 76.2 50.8) (xy 101.6 50.8)
		)
		(stroke
			(width 0.3)
			(type solid)
		)
		(uuid "a2684141-d4c4-450e-95c5-5a73e96a668d")
	)
	(wire
		(pts
			(xy 114.3 67.31) (xy 121.92 67.31)
		)
		(stroke
			(width 0)
			(type solid)
		)
		(uuid "a2e8f7ac-3286-4523-b17c-42370f6b6812")
	)
	(wire
		(pts
			(xy 95.25 74.93) (xy 99.06 74.93)
		)
		(stroke
			(width 0)
			(type solid)
		)
		(uuid "a70a2bc0-9332-44a5-af61-ba5e92826127")
	)
	(bus
		(pts
			(xy 111.76 69.85) (xy 111.76 72.39)
		)
		(stroke
			(width 0.3)
			(type solid)
		)
		(uuid "a9c6edb1-438b-46e2-86b2-362ba2acab13")
	)
	(bus
		(pts
			(xy 101.6 67.31) (xy 101.6 69.85)
		)
		(stroke
			(width 0.3)
			(type solid)
		)
		(uuid "abd4ffca-0471-4823-893b-8f8c62b45c23")
	)
	(bus
		(pts
			(xy 111.76 50.8) (xy 111.76 59.69)
		)
		(stroke
			(width 0.3)
			(type solid)
		)
		(uuid "b19955ff-fc9e-4737-bb9c-5cf2da635a6c")
	)
	(bus
		(pts
			(xy 101.6 69.85) (xy 101.6 72.39)
		)
		(stroke
			(width 0.3)
			(type solid)
		)
		(uuid "b58f668b-ecf0-4f9b-b931-7d17b48d935f")
	)
	(wire
		(pts
			(xy 114.3 57.15) (xy 121.92 57.15)
		)
		(stroke
			(width 0)
			(type solid)
		)
		(uuid "ba37071f-d7a8-48ef-a9a1-5e32cb02b0f3")
	)
	(bus
		(pts
			(xy 111.76 67.31) (xy 111.76 69.85)
		)
		(stroke
			(width 0.3)
			(type solid)
		)
		(uuid "be067774-809e-4f32-aead-59cdc087e20f")
	)
	(wire
		(pts
			(xy 95.25 72.39) (xy 99.06 72.39)
		)
		(stroke
			(width 0)
			(type solid)
		)
		(uuid "d9b2f7cf-5ee7-4ce7-9a0b-04e65063b5bc")
	)
	(bus
		(pts
			(xy 76.2 67.31) (xy 76.2 50.8)
		)
		(stroke
			(width 0.3)
			(type solid)
		)
		(uuid "e78a8579-8188-4b55-90f7-ec07b1cf2ce8")
	)
	(bus
		(pts
			(xy 101.6 72.39) (xy 101.6 74.93)
		)
		(stroke
			(width 0.3)
			(type solid)
		)
		(uuid "f78b959e-8e98-4133-a2f9-1b767795a29e")
	)
	(wire
		(pts
			(xy 95.25 67.31) (xy 99.06 67.31)
		)
		(stroke
			(width 0)
			(type solid)
		)
		(uuid "f7a84da0-765f-4c29-b76f-2317826cb08b")
	)
	(wire
		(pts
			(xy 114.3 69.85) (xy 121.92 69.85)
		)
		(stroke
			(width 0)
			(type solid)
		)
		(uuid "fc5834dc-c1cb-453c-9f35-d212b78959a1")
	)
	(wire
		(pts
			(xy 95.25 69.85) (xy 99.06 69.85)
		)
		(stroke
			(width 0)
			(type solid)
		)
		(uuid "fd3a67ca-bb98-4ffa-b6ae-99cf8ffcf69f")
	)
	(label "CLK_X"
		(at 114.3 67.31 0)
		(fields_autoplaced yes)
		(effects
			(font
				(size 1 1)
			)
			(justify left bottom)
		)
		(uuid "02ee9294-1942-4938-97f4-4d0f4d49c9ec")
	)
	(label "CMD_X"
		(at 78.74 67.31 0)
		(fields_autoplaced yes)
		(effects
			(font
				(size 1 1)
			)
			(justify left bottom)
		)
		(uuid "225aa43f-d676-46a7-b608-0b6a9a08c2ee")
	)
	(label "CLK_X"
		(at 78.74 69.85 0)
		(fields_autoplaced yes)
		(effects
			(font
				(size 1 1)
			)
			(justify left bottom)
		)
		(uuid "52529b4c-a8aa-4dc4-b280-fbbc7302185c")
	)
	(label "GND_X"
		(at 99.06 69.85 180)
		(fields_autoplaced yes)
		(effects
			(font
				(size 1 1)
			)
			(justify right bottom)
		)
		(uuid "75c11c21-727c-464b-afde-514c2f0bb4c7")
	)
	(label "DAT3_X"
		(at 99.06 64.77 180)
		(fields_autoplaced yes)
		(effects
			(font
				(size 1 1)
			)
			(justify right bottom)
		)
		(uuid "8435edb9-b7b9-4004-95e9-513d33a3cae4")
	)
	(label "DAT3_X"
		(at 114.3 59.69 0)
		(fields_autoplaced yes)
		(effects
			(font
				(size 1 1)
			)
			(justify left bottom)
		)
		(uuid "91cd88e4-4235-498f-9e65-00176b333864")
	)
	(label "SD{GND_X VDD_X CLK_X CMD_X DAT0_X DAT1_X DAT2_X DAT3_X}"
		(at 76.2 50.8 0)
		(fields_autoplaced yes)
		(effects
			(font
				(size 1.27 1.27)
			)
			(justify left bottom)
		)
		(uuid "a5375e74-f55e-4672-ac40-b5290c180362")
	)
	(label "GND_X"
		(at 114.3 69.85 0)
		(fields_autoplaced yes)
		(effects
			(font
				(size 1 1)
			)
			(justify left bottom)
		)
		(uuid "a6f51cb7-8df5-43af-adef-809d29238598")
	)
	(label "DAT1_X"
		(at 99.06 72.39 180)
		(fields_autoplaced yes)
		(effects
			(font
				(size 1 1)
			)
			(justify right bottom)
		)
		(uuid "acfbd8bc-9c57-4550-a9f7-5afa4c0f9ff1")
	)
	(label "CMD_X"
		(at 114.3 62.23 0)
		(fields_autoplaced yes)
		(effects
			(font
				(size 1 1)
			)
			(justify left bottom)
		)
		(uuid "adee40ed-8c68-41c0-b618-3c5181b9ae43")
	)
	(label "DAT0_X"
		(at 114.3 72.39 0)
		(fields_autoplaced yes)
		(effects
			(font
				(size 1 1)
			)
			(justify left bottom)
		)
		(uuid "b85939e1-09f5-4b2c-aba1-fa1006f07312")
	)
	(label "DAT2_X"
		(at 114.3 57.15 0)
		(fields_autoplaced yes)
		(effects
			(font
				(size 1 1)
			)
			(justify left bottom)
		)
		(uuid "c4e086a8-0c09-4b4c-83c9-937dd2c562bf")
	)
	(label "GND_X"
		(at 99.06 74.93 180)
		(fields_autoplaced yes)
		(effects
			(font
				(size 1 1)
			)
			(justify right bottom)
		)
		(uuid "cd4370e7-245e-4fa9-96c5-1701671cc241")
	)
	(label "DAT2_X"
		(at 78.74 64.77 0)
		(fields_autoplaced yes)
		(effects
			(font
				(size 1 1)
			)
			(justify left bottom)
		)
		(uuid "d407c84a-1206-4054-9823-d9b0baf0314e")
	)
	(label "DAT0_X"
		(at 78.74 72.39 0)
		(fields_autoplaced yes)
		(effects
			(font
				(size 1 1)
			)
			(justify left bottom)
		)
		(uuid "d6d7f377-eaf4-4ad3-bbf7-beaed1b3e8dc")
	)
	(label "VDD_X"
		(at 99.06 67.31 180)
		(fields_autoplaced yes)
		(effects
			(font
				(size 1 1)
			)
			(justify right bottom)
		)
		(uuid "d858d7f8-2730-4c9b-b2f1-05f2c2985098")
	)
	(label "GND_X"
		(at 78.74 74.93 0)
		(fields_autoplaced yes)
		(effects
			(font
				(size 1 1)
			)
			(justify left bottom)
		)
		(uuid "dab3103a-39f2-4c53-b775-149775b379e4")
	)
	(label "DAT1_X"
		(at 114.3 74.93 0)
		(fields_autoplaced yes)
		(effects
			(font
				(size 1 1)
			)
			(justify left bottom)
		)
		(uuid "ea751e4c-212e-4afe-889d-c70468b1ec51")
	)
	(label "VDD_X"
		(at 114.3 64.77 0)
		(fields_autoplaced yes)
		(effects
			(font
				(size 1 1)
			)
			(justify left bottom)
		)
		(uuid "efe6785b-caa8-4f7c-8e6a-c4682d32f4e1")
	)
	(symbol
		(lib_id "Connector_Generic:Conn_02x05_Odd_Even")
		(at 87.63 69.85 0)
		(unit 1)
		(exclude_from_sim no)
		(in_bom yes)
		(on_board yes)
		(dnp no)
		(uuid "1d95d475-8a33-4797-a17a-3274d8baf89b")
		(property "Reference" "J1"
			(at 88.9 59.2898 0)
			(effects
				(font
					(size 1.27 1.27)
				)
			)
		)
		(property "Value" "Internal"
			(at 88.9 61.589 0)
			(effects
				(font
					(size 1.27 1.27)
				)
			)
		)
		(property "Footprint" "Connector_PinHeader_2.00mm:PinHeader_2x05_P2.00mm_Horizontal"
			(at 87.63 69.85 0)
			(effects
				(font
					(size 1.27 1.27)
				)
				(hide yes)
			)
		)
		(property "Datasheet" "~"
			(at 87.63 69.85 0)
			(effects
				(font
					(size 1.27 1.27)
				)
				(hide yes)
			)
		)
		(property "Description" ""
			(at 87.63 69.85 0)
			(effects
				(font
					(size 1.27 1.27)
				)
				(hide yes)
			)
		)
		(property "LCSC" "C917610"
			(at 87.63 69.85 0)
			(effects
				(font
					(size 1.27 1.27)
				)
				(hide yes)
			)
		)
		(pin "1"
			(uuid "4e122f0a-6df9-45cd-8a53-f4c5e51c0225")
		)
		(pin "10"
			(uuid "b59780d7-0087-4a66-a0b1-fa706121cdfd")
		)
		(pin "2"
			(uuid "f900bb69-27d0-4e9c-ba4f-0e4274afe7b4")
		)
		(pin "3"
			(uuid "908a337a-a9a3-4102-b24f-c5d9664585c2")
		)
		(pin "4"
			(uuid "94cb2e58-fe44-47c5-bfe5-6eaccff2b3bc")
		)
		(pin "5"
			(uuid "ebda9487-7fce-4b44-ad41-3627d1cbcd1e")
		)
		(pin "6"
			(uuid "4051b1c5-31eb-48e8-8c7c-ad573f084156")
		)
		(pin "7"
			(uuid "3d7107cf-bb80-47e9-9cbf-79db802ece09")
		)
		(pin "8"
			(uuid "a7e4403a-8868-478b-bd02-79f703748fc1")
		)
		(pin "9"
			(uuid "204bf266-0e14-44ab-b421-16644ea8f094")
		)
		(instances
			(project "Amiga_1200_Porterweiterung_MikroSD"
				(path "/7c1ec8a5-5aad-476c-a52f-fb322a08536a"
					(reference "J1")
					(unit 1)
				)
			)
		)
	)
	(symbol
		(lib_id "Connector:Micro_SD_Card")
		(at 144.78 64.77 0)
		(unit 1)
		(exclude_from_sim no)
		(in_bom yes)
		(on_board yes)
		(dnp no)
		(fields_autoplaced yes)
		(uuid "846234ac-e052-4410-885c-06f0dfbedd6f")
		(property "Reference" "J2"
			(at 145.415 46.99 0)
			(effects
				(font
					(size 1.27 1.27)
				)
			)
		)
		(property "Value" "Micro_SD_Card"
			(at 145.415 49.53 0)
			(effects
				(font
					(size 1.27 1.27)
				)
			)
		)
		(property "Footprint" "1.Eigenes:Mikro-SD-Card"
			(at 173.99 57.15 0)
			(effects
				(font
					(size 1.27 1.27)
				)
				(hide yes)
			)
		)
		(property "Datasheet" "http://katalog.we-online.de/em/datasheet/693072010801.pdf"
			(at 144.78 64.77 0)
			(effects
				(font
					(size 1.27 1.27)
				)
				(hide yes)
			)
		)
		(property "Description" ""
			(at 144.78 64.77 0)
			(effects
				(font
					(size 1.27 1.27)
				)
				(hide yes)
			)
		)
		(pin "1"
			(uuid "fdca2c9f-d038-481f-a62c-df8361550199")
		)
		(pin "2"
			(uuid "88a11aa8-16fa-4ae5-8670-ae90225d043d")
		)
		(pin "3"
			(uuid "449bc75d-bc97-4bd6-a39c-41a7193054ea")
		)
		(pin "4"
			(uuid "208908c8-002e-46ba-80b1-81e96742cdaa")
		)
		(pin "5"
			(uuid "7acdac27-fd38-4cd4-a954-797676527e9d")
		)
		(pin "6"
			(uuid "fb5029af-7cea-446c-96ba-adae7e20da55")
		)
		(pin "7"
			(uuid "873b67a2-b706-46ce-bc97-95cec4db5eda")
		)
		(pin "8"
			(uuid "c85d25fd-3023-46d4-a1f7-77e287e6a1be")
		)
		(pin "9"
			(uuid "d4e5cd6e-c690-4a0e-9e6e-2c01d541e43c")
		)
		(instances
			(project "Amiga_1200_Porterweiterung_MikroSD"
				(path "/7c1ec8a5-5aad-476c-a52f-fb322a08536a"
					(reference "J2")
					(unit 1)
				)
			)
		)
	)
	(sheet_instances
		(path "/"
			(page "1")
		)
	)
)
